%YAML 1.1
%TAG !u! tag:unity3d.com,2011:
--- !u!21 &2100000
Material:
  serializedVersion: 6
  m_ObjectHideFlags: 0
  m_CorrespondingSourceObject: {fileID: 0}
  m_PrefabInstance: {fileID: 0}
  m_PrefabAsset: {fileID: 0}
  m_Name: SubObjMat
  m_Shader: {fileID: -6465566751694194690, guid: 5af7fc0e4dba6f846a0cd0b3ab5a2350,
    type: 3}
  m_ShaderKeywords: 
  m_LightmapFlags: 4
  m_EnableInstancingVariants: 0
  m_DoubleSidedGI: 0
  m_CustomRenderQueue: -1
  stringTagMap: {}
  disabledShaderPasses: []
  m_SavedProperties:
    serializedVersion: 3
    m_TexEnvs: []
    m_Floats:
    - Vector1_14A4DAB4: 3
    - Vector1_6202EBB2: 0.1
    - Vector1_F5B3431E: 10
    m_Colors:
    - Color_2889D733: {r: 0.9716981, g: 0.4586976, b: 0.3620951, a: 0.7098039}
