%YAML 1.1
%TAG !u! tag:unity3d.com,2011:
--- !u!1045 &1
EditorBuildSettings:
  m_ObjectHideFlags: 0
  serializedVersion: 2
  m_Scenes:
  - enabled: 1
    path: Assets/Scenes/MainMenu.unity
    guid: 8e6a4f00f46c8ac4d80a0627c89e92ed
  - enabled: 1
    path: Assets/Scenes/Gameplay.unity
    guid: 390ad408d01d68b4caa1d7e6699dc75d
  - enabled: 1
    path: Assets/Scenes/StoryMenu.unity
    guid: a5960c89071381e4a9a572bb4db318fa
  - enabled: 1
    path: Assets/Scenes/ControlsMenu.unity
    guid: 4f0d9199d668b7b4f94f7a7b363e699c
  - enabled: 1
    path: Assets/Scenes/CreditsMenu.unity
    guid: 5ec63ad57f58bbf47916c648888373c8
  - enabled: 1
    path: Assets/Scenes/GameOver.unity
    guid: 0c87b37b954dd2e439c7e2960b4560db
  - enabled: 1
    path: Assets/Scenes/GameWin.unity
    guid: dd3168217621dec48a400f766e234796
  m_configObjects: {}
